Recipes and Specifications
…
In our data cleaning step, we used `factor1 to make this variable categorical.

Unfortunately, not all modeling specifications know how to deal with categorical variables! Instead, we need to dummify the variable, to make it appear as numeric:

rec_3 <- rec_3 %>%
  step_dummy(cp)

To better conceptualize what happened in that step, we can make use of this recipe to bake() some data and see what it would look like:

rec_3 %>%
  prep(ha_1) %>%
  bake(ha_1)

# A tibble: 204 × 11
   Name       age sex   trtbps  chol restecg thalach diagnosis cp_X2 cp_X3 cp_X4
   <fct>    <dbl> <fct>  <dbl> <dbl> <fct>     <dbl> <fct>     <dbl> <dbl> <dbl>
 1 Magnoli…    60 1        117   230 1           160 No Disea…     0     0     0
 2 Dr. Cat…    60 0        102   318 1           160 Disease       0     1     0
 3 Miles W…    62 0        130   263 1            97 No Disea…     0     1     0
 4 Mikaila…    43 1        115   303 1           181 Disease       0     0     0
 5 Mrs. Ja…    66 1        120   302 0           151 Disease       0     0     0
 6 Dr. Ott…    44 1        140   235 0           180 Disease       0     1     0
 7 Zina Ha…    63 0        150   407 0           154 No Disea…     0     0     0
 8 Avery K…    64 0        180   325 1           154 Disease       0     0     0
 9 Miss My…    51 1        140   299 1           173 No Disea…     0     0     0
10 Amina C…    41 1        110   172 0           158 No Disea…     0     0     0
# ℹ 194 more rows
…
