Prediction and Metrics
…
preds_lr <- model_fit_lr %>%
  predict(ha_2)

preds_dt <- model_fit_dt %>%
  predict(ha_2)

preds_knn <- model_fit_knn %>%
  predict(ha_2)

Each of these objects is a data frame, containing one row called .pred_class, which gives the predicted diagnosis for each person.

preds_lr

# A tibble: 69 × 1
   .pred_class
   <fct>      
 1 Disease    
 2 No Disease 
 3 Disease    
 4 Disease    
 5 No Disease 
 6 Disease    
 7 Disease    
 8 Disease    
 9 Disease    
10 Disease    
# ℹ 59 more rows
…
In the workflow, the recipe applied to ha_1 during the fit process will automatically also be applied to ha_2 during the predict process.

Now, let’s see how we did:

res <- tibble(
  Truth = ha_2$diagnosis,
  LogReg_Preds = preds_lr$.pred_class,
  DecTree_Preds = preds_dt$.pred_class,
  KNN_Preds = preds_knn$.pred_class
)

res

# A tibble: 69 × 4
   Truth   LogReg_Preds DecTree_Preds KNN_Preds 
   <fct>   <fct>        <fct>         <fct>     
 1 Disease Disease      Disease       No Disease
 2 Disease No Disease   No Disease    No Disease
 3 Disease Disease      Disease       Disease   
 4 Disease Disease      Disease       Disease   
 5 Disease No Disease   Disease       No Disease
 6 Disease Disease      Disease       Disease   
 7 Disease Disease      Disease       Disease   
 8 Disease Disease      No Disease    Disease   
 9 Disease Disease      Disease       Disease   
10 Disease Disease      No Disease    No Disease
# ℹ 59 more rows
…
