Cross-Validation and Tuning
…
Next, we make a workflow using our best recipe:

wflow_knn_tune <- workflow() %>%
  add_model(knn_tune_spec) %>%
  add_recipe(rec_3)

Finally, we decide what possible values of neighbors we are willing to consider.

k_vals <- tibble(
  neighbors = 2:50
)

k_vals

# A tibble: 49 × 1
   neighbors
       <int>
 1         2
 2         3
 3         4
 4         5
 5         6
 6         7
 7         8
 8         9
 9        10
10        11
# ℹ 39 more rows
…
